{
    "browserSyncOptions": {
        "proxy": "localhost/",
        "notify": false
    },
    "browserSyncWatchFiles": [
        "./assets/css/*.min.css",
        "./assets/js/*.min.js",
        "./**/*.php"
    ],
    "paths": {
        "css": "./assets/css",
        "dist": "./dist",
        "fonts": "./assets/fonts",
        "img": "./assets/img",
        "imgsrc": "./assets/img/raw/**/*",
        "js": "./assets/js",
        "node": "./node_modules/",
        "sass": "./assets/scss",
        "vendor": "./assets/vendor"
    }
}
